…
# combining two sets together with a helper dataframe
month_df = 
  tibble(
    month = 1:12,
    month_name = month.name
  )

precipitation_17_and_18 =
bind_rows(precipitation_2017,precipitation_2018)
left_join(precipitation_17_and_18, month_df, by = "month")
```

    ## # A tibble: 24 x 4
    ##    month total  year month_name
    ##    <dbl> <dbl> <dbl> <chr>     
    ##  1     1  2.34  2017 January   
    ##  2     2  1.46  2017 February  
    ##  3     3  3.57  2017 March     
    ##  4     4  3.99  2017 April     
    ##  5     5  5.64  2017 May       
    ##  6     6  1.4   2017 June      
    ##  7     7  7.09  2017 July      
    ##  8     8  4.44  2017 August    
    ##  9     9  1.95  2017 September 
    ## 10    10  0     2017 October   
    ## # … with 14 more rows
…
